{
    "disksize": 128,
    "config": "./config",
    "initrd": { "type": "cpio", "gzip": true, "directory": "." },
    "iso9660": true,
    "partitions": [
        { "type": "boot", "size": 16 }
    ]
}
